{
    "code": 200,
    "meta": {
        "pagination": {
            "total": 1302,
            "pages": 66,
            "page": 1,
            "limit": 20
        }
    },
    "data": [
        {
            "id": 3,
            "user_id": 2,
            "title": "Armarium dapifer triduana auctor ut aut sint tantum comprehendo quia est aurum vorax testimonium.",
            "body": "Autem delinquo suppellex. Casus compono vilicus. Agnosco cimentarius ea. Vinculum ventus vulariter. Accommodo aufero victoria. Aut cornu hic. Admitto veritas quas. Tabella ter est. Peior clamo benigne. Vaco civitas comitatus. Adicio congregatio velociter. Avarus strenuus sperno. Dolorum aiunt umerus. Vulnero aut contego. Contego tepidus civitas. Validus at voluptatibus. Curis copiose caecus. Crapula tersus debeo. Talus spiculum balbus. Vitiosus surculus decens.",
            "created_at": "2021-05-12T03:50:03.409+05:30",
            "updated_at": "2021-05-12T03:50:03.409+05:30"
        },
        {
            "id": 4,
            "user_id": 3,
            "title": "Abundans subito absorbeo doloribus degenero subvenio occaecati.",
            "body": "Aliquid bonus cinis. Sapiente corpus accusator. Sit repudiandae beatae. Aut denuncio varius. Comburo blanditiis temperantia. Qui depulso tondeo. Tendo autem consectetur. Adeo et repellendus. Crebro tepidus subnecto. Balbus demonstro vorax. Veritatis nesciunt tabella. Deprecator rerum absque. Et tremo curo. Consequatur tendo uberrime. Vulgo vetus asperiores.",
            "created_at": "2021-05-12T03:50:03.420+05:30",
            "updated_at": "2021-05-12T03:50:03.420+05:30"
        },
        {
            "id": 5,
            "user_id": 3,
            "title": "Correptius tollo auctus tamisium sufficio spiculum crinis tego consuasor delectatio esse maxime vitae carmen territo conculco cur altus curvus.",
            "body": "Adicio volo et. Attollo cruciamentum fugiat. Est strenuus tutis. Verbum summisse despecto. Advoco torqueo venio. Atavus vito id. Thesis conitor tabula. Victoria utpote bene. Supplanto cado cenaculum. Arto audacia argentum. Inventore varietas ascisco. Xiphias colloco enim. Creta commemoro patruus. Argentum enim ambulo. Assumenda tandem velut. Audeo ambitus adstringo. Verumtamen canto pecco. Peior tutis summisse. Conspergo cornu adimpleo. Quia unus cultura. Cunae vorax alii.",
            "created_at": "2021-05-12T03:50:03.428+05:30",
            "updated_at": "2021-05-12T03:50:03.428+05:30"
        },
        {
            "id": 7,
            "user_id": 5,
            "title": "Stipes vito curvus totam constans cursus arbitro communis argumentum.",
            "body": "Deduco ullam theatrum. Labore dolorem incidunt. Audax repudiandae complectus. Amet aliquam viriliter. Quibusdam asperiores aequus. Molestiae video vulnus. Varietas carcer dedico. Doloribus collum tamdiu. Et aeternus clementia. Triumphus vehemens conicio. Calcar suppellex tolero. Despecto crudelis cupressus. Video creber laudantium. Cattus dolorum impedit. Crinis vesica necessitatibus. Amor vigor caveo. Canto aedificium conculco. Recusandae corona agnitio. Cetera aequitas verecundia.",
            "created_at": "2021-05-12T03:50:03.470+05:30",
            "updated_at": "2021-05-12T03:50:03.470+05:30"
        },
        {
            "id": 10,
            "user_id": 7,
            "title": "Optio a usque spoliatio voluptas subvenio ulciscor amplexus tempora.",
            "body": "Civis adfero caterva. Solio contra demitto. Consequatur curvo cinis. Tunc ago convoco. Deripio ducimus non. Earum suppellex antepono. Demo est cubicularis. Ut thymum est. Quia deleo crur. Cimentarius nisi magnam. Depromo cras sufficio. Libero verbum creptio. Pecto spiculum defluo. Tametsi atrox bene. Quaerat tutis conor. Voluptates sumo averto.",
            "created_at": "2021-05-12T03:50:03.498+05:30",
            "updated_at": "2021-05-12T03:50:03.498+05:30"
        },
        {
            "id": 12,
            "user_id": 9,
            "title": "Voluptate surculus conforto consectetur defetiscor collum vae deduco quibusdam succedo canonicus ut appello veniam vos ventosus.",
            "body": "Cedo volubilis vita. Defluo minus adhaero. Tutis vulgus candidus. Curto voluntarius modi. Tergiversatio est ullam. Magni esse aurum. Voluptas vesco sortitus. Cupiditas super subiungo. Amiculum accipio ut. Vultuosus beneficium vesica. Voluptatem pauper enim. Voluntarius culpa apostolus. Triginta arbor utrimque. Caelestis pecto et. Et voluntarius eaque. Auxilium accusamus vir.",
            "created_at": "2021-05-12T03:50:03.524+05:30",
            "updated_at": "2021-05-12T03:50:03.524+05:30"
        },
        {
            "id": 13,
            "user_id": 10,
            "title": "Necessitatibus verus adicio pariatur textus clibanus solutio solus.",
            "body": "Deserunt derelinquo aggero. Blanditiis at terga. Basium admitto soluta. Ventosus ulciscor cur. Decretum suffoco color. Acervus turba vae. Utpote vestrum administratio. Vulnus conicio dolor. Et creator curvo. Voluptatum commemoro teneo. Non coma vomica. Capto advenio ventus. Uter charisma curiositas. Iure ceno pauper. Vehemens viscus deputo. Pel tabgo villa. Bonus animi vigilo. Apparatus tam ademptio. Causa validus ulciscor. Deripio argentum certo. Taedium coaegresco cometes. Alienus apostolus ab. Quo sordeo velit. Voluptatem vesco sonitus. Supplanto calcar capto. Avarus vinum triduana.",
            "created_at": "2021-05-12T03:50:03.542+05:30",
            "updated_at": "2021-05-12T03:50:03.542+05:30"
        },
        {
            "id": 14,
            "user_id": 11,
            "title": "Aestivus blanditiis adinventitias officia dolorem voluptate dedecor crinis curia consectetur venio omnis quam minus vilitas assentator.",
            "body": "Ambitus tergiversatio teneo. Comminor xiphias decor. Coruscus usque beatae. Inventore artificiose casus. Adulescens altus approbo. Atrox qui accedo. Color adficio totidem. Cohibeo curatio contigo. Acervus tepesco cariosus. Curis aveho velit. Occaecati volutabrum degero. Consectetur vulticulus vapulus. Acies stabilis pecunia. Vinculum creator teneo. Sint sufficio cui. Cursim voluptas ancilla. Basium repellendus decimus. Sublime aliqua decumbo. Adicio cui decerno. Custodia patior tardus. Consequatur cimentarius cibo. Adfero volaticus clibanus. Uter quis trans. Quod aegrotatio canto. Civitas beneficium confero. Civis quidem aspernatur. Theca vos alii. Arbitro admoveo succedo.",
            "created_at": "2021-05-12T03:50:03.555+05:30",
            "updated_at": "2021-05-12T03:50:03.555+05:30"
        },
        {
            "id": 15,
            "user_id": 12,
            "title": "Casso pecto vulgus aestas administratio virtus.",
            "body": "Vinum comprehendo conturbo. Vel accusantium ambitus. Velit aut tempore. Quidem sperno peior. Qui est caries. Amet vis amiculum. Vulgo ait vinculum. Ascisco delicate adversus. Totidem tergeo cerno. Consequatur est est. Tripudio audax vitae. Maiores terga tolero. Cariosus repudiandae aeneus. Sollers stabilis verbera. Molestiae voluptatem conicio. Vulnero contra sunt. Desino tonsor neque. Vindico vulgaris arto. Tenetur cernuus caries. Tenax votum aiunt.",
            "created_at": "2021-05-12T03:50:03.571+05:30",
            "updated_at": "2021-05-12T03:50:03.571+05:30"
        },
        {
            "id": 16,
            "user_id": 12,
            "title": "Reprehenderit atrocitas laborum repudiandae valde cribro architecto praesentium cavus creo villa amo vomica carmen vos.",
            "body": "Conqueror cunabula vita. Balbus rerum votum. Approbo assumenda antiquus. Accedo dolorum aqua. Saepe caterva eius. Aureus decimus vobis. Et cras comedo. Sed thesaurus consequatur. Suffragium decipio defungo. Conscendo velociter dedico. Vulpes balbus ratione. Appositus adimpleo ocer. Vapulus armarium tutamen. Virga vapulus in. Verto voluptas comptus. Iusto tracto curis. Fugit territo aspicio. Conqueror omnis aggredior. Decipio sollicito arbor. Aestus subiungo campana. Umerus carus degero. Officia aliqua tumultus. Conor sit comminor. Verbera utilis canis. Tubineus sperno voluptatem.",
            "created_at": "2021-05-12T03:50:03.584+05:30",
            "updated_at": "2021-05-12T03:50:03.584+05:30"
        },
        {
            "id": 17,
            "user_id": 13,
            "title": "Desparatus eaque taceo ver vinculum vinitor non patria quia decerno demum cornu ciminatio caveo dolores dolore animi.",
            "body": "Comitatus adfero paens. Iusto utrimque creptio. Absconditus conforto trado. Vesco ventito vehemens. Certo doloremque amo. Taceo capillus cauda. Succedo solum terebro. Tametsi supellex defungo. Vitium alienus statim. Assumenda iusto arguo. Demum cumque coruscus. Verumtamen cibo sint. Commodo pecto ventito. Totidem urbanus voluptate. Delibero infit demonstro. Vero adimpleo cum. Amplexus adsidue ratione. Sed pecto ultra.",
            "created_at": "2021-05-12T03:50:03.598+05:30",
            "updated_at": "2021-05-12T03:50:03.598+05:30"
        },
        {
            "id": 18,
            "user_id": 14,
            "title": "Asper carmen ars aliquid crustulum animadverto.",
            "body": "Carus debeo tutis. Cupiditate eum eos. Aperiam illum aut. Conitor triduana contigo. Animadverto aptus testimonium. Molestias admiratio et. Iusto denuncio vox. Cunabula tendo degero. Thema aliquid repellat. Vereor coniecto theca. Depraedor vociferor quo. Cedo agnitio cogo. Carpo aeternus desino. Averto credo bos. Statim absque damno. Somniculosus sperno aperiam. Ipsa arcus accendo. Pecunia universe voluptas. Defessus acies sum. Decor celer venia. Theatrum aut crapula. Corrigo curto sulum. Artificiose autem depono. Vinum vox tutis. Currus brevis celebrer. Studio arto curriculum. Tot autem thesaurus. Aliqua mollitia derideo.",
            "created_at": "2021-05-12T03:50:03.612+05:30",
            "updated_at": "2021-05-12T03:50:03.612+05:30"
        },
        {
            "id": 20,
            "user_id": 15,
            "title": "Thermae vomica thalassinus asperiores quia qui.",
            "body": "Varietas degenero acer. Desipio explicabo cohors. Debitis incidunt despirmatio. Tantum arca alienus. Cotidie thermae succurro. Absens sperno socius. Consequatur ultra cubicularis. Voveo verto volva. Ait attonbitus summisse. Sursum patior acidus. Dolorem apostolus canto. Assentator verbera combibo. Infit speculum caecus. Pecto cultura tersus. Vel et explicabo. Depulso corrumpo decet. Cometes aut carcer. Qui quod accedo. Cribro votum ager. Cogo video culpa. Veniam statua balbus. Voluptate campana qui. Architecto aestus cinis. Catena cursim articulus. Talio aedificium accusator.",
            "created_at": "2021-05-12T03:50:03.639+05:30",
            "updated_at": "2021-05-12T03:50:03.639+05:30"
        },
        {
            "id": 21,
            "user_id": 16,
            "title": "Creber sopor uberrime curto infit terminatio venia repellat corpus ut universe depraedor eos verto statim.",
            "body": "Valetudo sto cura. Unde degusto vix. Triginta armo tardus. Demo defluo et. Ut eos decretum. Alienus degusto comes. Vix volutabrum verbera. Varietas usque terminatio. Beneficium cum delicate. Veniam somniculosus et. Comburo venustas candidus. Amet veritatis velum. Soluta aegre alii. Deputo demoror est. Apparatus tergum velut. Arcus tabgo bene. Dolore aiunt et. Consequatur acies ter. Vinculum non demergo. Aptus deprimo arcus. Depulso curatio aut. Ut tenetur denuo. Eveniet ustilo synagoga. Adamo defluo creo. Triumphus cruciamentum strenuus.",
            "created_at": "2021-05-12T03:50:03.654+05:30",
            "updated_at": "2021-05-12T03:50:03.654+05:30"
        },
        {
            "id": 22,
            "user_id": 17,
            "title": "Dolor cariosus agnitio comes contabesco cognomen nam ullam curto labore.",
            "body": "Officiis coma concido. Coniecto decipio averto. Adaugeo theologus unde. Sunt contra vacuus. Agnosco repellat vapulus. Voluptas utroque paens. Solio attonbitus cursus. Atqui virga tredecim. Vulariter subnecto coruscus. Molestiae absorbeo adaugeo. Subito delinquo provident. Sto aliquam adhaero. Ulciscor tamquam cruentus. Eaque nemo cui. Anser maxime copia. Aegre repellendus delicate.",
            "created_at": "2021-05-12T03:50:03.665+05:30",
            "updated_at": "2021-05-12T03:50:03.665+05:30"
        },
        {
            "id": 23,
            "user_id": 17,
            "title": "Deprimo vindico vesco strues celebrer theatrum.",
            "body": "Voluptas decumbo beatae. Cauda adduco virga. Aegre curo beatae. Acies concedo coniuratio. Careo spargo caries. Cinis numquam ratione. Suppellex utpote voluntarius. Sumo suscipio atavus. Sequi aliqua deludo. Curis aurum decimus. Trado decretum appello. Beatae admoneo crux. Velociter basium nemo. Reprehenderit deorsum speculum. Charisma tantillus cupiditate. Terror et voluptatibus. In aedificium quia. Bene facere tremo. Aveho thema benigne. Auditor sui arx. Est ventosus tamdiu. Confido abstergo pauper. Excepturi carus clarus. Civis aggero pecus. Socius sit callide. Debeo laboriosam sollers. Pax est suasoria. Tutis aro asperiores. Timidus una ipsa.",
            "created_at": "2021-05-12T03:50:03.675+05:30",
            "updated_at": "2021-05-12T03:50:03.675+05:30"
        },
        {
            "id": 24,
            "user_id": 18,
            "title": "Ascit valetudo aut sustineo coaegresco vos voluptas depraedor victoria ancilla arceo advenio esse bos charisma.",
            "body": "Defendo et vado. Coadunatio tui viriliter. Tunc dolorum tamdiu. Coma defetiscor tollo. Qui magni delibero. Consequatur dolorem testimonium. Timidus cubicularis tergiversatio. Molestiae qui voluptatem. Speciosus et spiritus. Alioqui consuasor contego. Utroque sonitus tepesco. Cicuta blanditiis nemo. Vulgivagus vacuus maiores. Appono curvo super. Abstergo voluptatem celo. Carmen tunc consequatur. Video certe comis.",
            "created_at": "2021-05-12T03:50:03.694+05:30",
            "updated_at": "2021-05-12T03:50:03.694+05:30"
        },
        {
            "id": 25,
            "user_id": 19,
            "title": "Amiculum dolor ver mollitia vorax conor defluo chirographum beatae cetera est cubitum aro sublime circumvenio quis clam.",
            "body": "Vel thesis eum. Officiis maiores suscipit. Thema talus valeo. Vetus sapiente beneficium. Admitto caste aut. Crepusculum cattus ago. Molestias aperio tolero. Laudantium vesica conventus. Civitas cruentus baiulus. Theca aliquid valetudo. Accusamus sequi theologus. Volutabrum decretum tenax. Abscido tristis accusantium. Studio absens damno. Canto enim atque.",
            "created_at": "2021-05-12T03:50:03.709+05:30",
            "updated_at": "2021-05-12T03:50:03.709+05:30"
        },
        {
            "id": 28,
            "user_id": 24,
            "title": "Ait subito deduco carpo territo vulticulus creta.",
            "body": "Odio tabella talis. Vigilo cuppedia tenuis. Infit occaecati cupio. Et deprimo creber. Tres allatus curiositas. Illo derelinquo speculum. Asper antepono uter. Curtus vinculum debilito. Accusamus solium cohibeo. Desipio exercitationem unde. Ipsa confugo cribro. Infit arbor accusantium. Abstergo inflammatio eveniet. Corporis benigne viduo. Atavus demum civitas. Deleo cubo sortitus. Attonbitus pectus architecto. Facere defigo villa. Uter viduata contigo. Armarium demens beneficium. Sortitus claro ultra.",
            "created_at": "2021-05-12T03:50:03.775+05:30",
            "updated_at": "2021-05-12T03:50:03.775+05:30"
        },
        {
            "id": 29,
            "user_id": 28,
            "title": "Cauda vox aestas modi excepturi tepidus tergiversatio coma vulticulus thorax cubo saepe calco truculenter baiulus.",
            "body": "Non animi derelinquo. Cibo cervus contigo. Modi tricesimus degero. Compello recusandae celo. Amita perferendis asperiores. Virga culpo aqua. Corrigo ipsum benigne. Depraedor blanditiis despirmatio. Quam dolorum contabesco. Videlicet corrupti nam. Tergiversatio molestiae cavus. Curiositas triginta aperte. Vel cimentarius accedo. Celer vinco adulatio. Talus subito viscus. Qui tertius voluptate.",
            "created_at": "2021-05-12T03:50:03.817+05:30",
            "updated_at": "2021-05-12T03:50:03.817+05:30"
        }
    ]
}